{
  "story_f0_smartphone": [false, 1, 1, 620, 971],
  "story_f0_smartphone_stars": [false, 622, 1, 320, 400],
  "story_f0_parents": [false, 943, 1, 680, 340],
  "story_f0_construction_site": [false, 943, 342, 600, 300],
  "story_f0_entry_chromeleon": [false, 622, 643, 600, 300],
  "story_f0_house_of_rich": [false, 1223, 643, 600, 300],
  "story_f0_park": [false, 1624, 1, 300, 300],
  "story_f0_park_chrome": [false, 1624, 302, 300, 300],
  "story_f0_picture": [false, 622, 944, 600, 300],
  "story_f0_star_map": [false, 1223, 944, 600, 300],
  "story_f0_video_background": [false, 1, 973, 600, 300],
  "story_f0_video_foreground": [false, 602, 1245, 600, 300],
  "story_f0_video_start_background": [false, 1203, 1245, 600, 300],
  "story_f0_woogle": [false, 1, 1274, 600, 300],
  "story_f0_woogle_foreground": [false, 602, 1546, 600, 300],
  "story_f0_video_clock": [false, 622, 402, 200, 200],
  "story_f0_video_clock_center": [false, 1203, 1546, 200, 200],
  "story_f0_video_clock_hour": [false, 1404, 1546, 200, 200],
  "story_f0_video_clock_minute": [false, 1605, 1546, 200, 200],
  "story_f0_video_clock_second": [false, 1, 1575, 200, 200],
  "story_f0_hand": [false, 202, 1575, 282, 167],
  "story_f0_weird_pic_man": [false, 823, 402, 93, 127],
  "story_f0_construction_site_roller": [false, 1824, 643, 140, 122],
  "story_f0_construction_site_crane": [false, 202, 1743, 199, 121],
  "story_f0_chromander_eye": [false, 1203, 1747, 305, 116],
  "story_f0_chromander": [false, 823, 530, 100, 100],
  "story_f0_video_start_button": [false, 1824, 766, 100, 100],
  "story_f0_inside_explorer": [false, 1824, 867, 100, 98],
  "story_f0_woogle_car_l_1": [false, 1824, 966, 135, 71],
  "story_f0_woogle_car_l_2": [false, 1824, 1038, 135, 71],
  "story_f0_woogle_car_l_3": [false, 1824, 1110, 135, 71],
  "story_f0_woogle_car_r_1": [false, 1824, 1182, 122, 63],
  "story_f0_woogle_car_r_2": [false, 1804, 1246, 122, 63],
  "story_f0_woogle_car_r_3": [false, 1804, 1310, 122, 63],
  "story_f0_construction_site_tree": [false, 1925, 1, 46, 34],
  "story_f0_red_arrow": [false, 1972, 1, 24, 30],
  "story_f0_smartphone_star_big_2": [false, 1972, 32, 25, 26],
  "story_f0_smartphone_star_big_4": [false, 1925, 36, 25, 26],
  "story_f0_smartphone_star_big_5": [false, 1951, 59, 26, 26],
  "story_f0_smartphone_star_big_6": [false, 1925, 63, 25, 26],
  "story_f0_smartphone_star_big_0": [false, 1951, 86, 25, 25],
  "story_f0_smartphone_star_big_1": [false, 1925, 112, 26, 25],
  "story_f0_smartphone_star_big_3": [false, 1952, 112, 25, 25],
  "story_f0_smartphone_star_big_7": [false, 1925, 138, 25, 25],
  "story_f0_video_moderator_eyes": [true, [1951, 1951, 1925, 1925], [138, 154, 170, 186], 43, 15],
  "story_f0_video_moderator_eyes_open": [false, 1925, 202, 43, 15],
  "story_f0_video_moderator_mouth": [true, [1925, 1925], [90, 99], 23, 8],
  "story_f0_video_moderator_mouth_closed": [false, 1969, 170, 23, 8],
  "story_f0_smartphone_star_small_0": [false, 1951, 36, 7, 7],
  "story_f0_smartphone_star_small_1": [false, 1959, 36, 7, 7],
  "story_f0_smartphone_star_small_2": [false, 1951, 44, 7, 7],
  "story_f0_smartphone_star_small_4": [false, 1959, 44, 7, 7],
  "story_f0_smartphone_star_small_5": [false, 1978, 59, 7, 7],
  "story_f0_smartphone_star_small_3": [false, 1951, 52, 7, 6],
  "story_f0_smartphone_star_small_6": [false, 1959, 52, 7, 6],
  "story_f0_smartphone_star_small_7": [false, 1986, 59, 7, 6]
}